STATUS: 200
BODY: {"products":[{"id":7,"name":"Apple","unit":"kg","category":"Food","brand":"Organic Farms","stock":50,"status":"In Stock","image":null},{"id":10,"name":"Bread","unit":"pcs","category":"Food","brand":"Bakery Co","stock":30,"status":"In Stock","image":null},{"id":11,"name":"Headphones","unit":"pcs","category":"Electronics","brand":"Sony","stock":12,"status":"In Stock","image":null},{"id":12,"name":"Jacket","unit":"pcs","category":"Clothing","brand":"Adidas","stock":10,"status":"In Stock","image":null},{"id":9,"name":"Jeans","unit":"pcs","category":"Clothing","brand":"Levi's","stock":15,"status":"In Stock","image":null},{"id":5,"name":"Laptop","unit":"pcs","category":"Electronics","brand":"Dell","stock":5,"status":"In Stock","image":null},{"id":13,"name":"Milk","unit":"liters","category":"Food","brand":"Dairy Inc","stock":25,"status":"In Stock","image":null},{"id":8,"name":"Smartphone","unit":"pcs","category":"Electronics","brand":"Samsung","stock":8,"status":"In Stock","image":null},{"id":6,"name":"T-Shirt","unit":"pcs","category":"Clothing","brand":"Nike","stock":20,"status":"In Stock","image":null},{"id":4,"name":"ritik more","unit":"3","category":"mobile","brand":"vivo","stock":2,"status":"In Stock","image":"www.vivo.com"}],"pagination":{"page":1,"limit":10,"total":11,"pages":2}}